text-mining
…
tokenizing with tidytext

{tidytext} provides many unnest_*() functions to help us to tokenize

grants |>
  unnest_tokens(token, abstract) |>
  relocate(token)

tokenizing with tidytext

# A tibble: 1,542,649 × 4
   token            amount decision_year grant_number
   <chr>             <int> <fct>         <chr>       
 1 in             40380800 2022          212921      
 2 organizational 40380800 2022          212921      
 3 research       40380800 2022          212921      
 4 corruption     40380800 2022          212921      
 5 the            40380800 2022          212921      
 6 misuse         40380800 2022          212921      
 7 of             40380800 2022          212921      
 8 a              40380800 2022          212921      
 9 position       40380800 2022          212921      
10 of             40380800 2022          212921      
# ℹ 1,542,639 more rows
…
stemming with tidytext

The {snowballC} package can perform the porter stemmer

grants |>
  unnest_tokens(token, abstract) |>
  mutate(token_stem = SnowballC::wordStem(token)) |>
  relocate(token, token_stem)

stemming with tidytext

# A tibble: 1,542,649 × 5
   token          token_stem amount decision_year grant_number
   <chr>          <chr>       <int> <fct>         <chr>       
 1 in             in         4.04e7 2022          212921      
 2 organizational organiz    4.04e7 2022          212921      
 3 research       research   4.04e7 2022          212921      
 4 corruption     corrupt    4.04e7 2022          212921      
 5 the            the        4.04e7 2022          212921      
 6 misuse         misus      4.04e7 2022          212921      
 7 of             of         4.04e7 2022          212921      
 8 a              a          4.04e7 2022          212921      
 9 position       posit      4.04e7 2022          212921      
10 of             of         4.04e7 2022          212921      
# ℹ 1,542,639 more rows
…
Filtering Tokens

Counting Tokens

Now that we have the tokens in the state we want, we might want to count them

grants |>
  unnest_tokens(token, abstract) |>
  count(token, sort = TRUE) |>
  print(n = 50)

Counting Tokens

# A tibble: 53,774 × 2
   token         n
   <chr>     <int>
 1 the       92058
 2 of        68818
 3 and       59441
 4 to        40648
 5 in        38999
 6 a         25578
 7 will      15433
 8 is        15158
 9 for       14918
10 on        12392
11 with      11310
12 as        11001
13 this      10779
14 that      10680
15 be        10355
16 by         9211
17 are        8841
18 we         8825
19 from       5920
20 project    5660
21 at         5479
22 an         5449
23 research   5112
24 which      4935
25 these      4859
26 or         4836
27 have       4477
28 their      4079
29 it         3815
30 has        3654
31 our        3622
32 can        3304
33 new        3242
34 such       3233
35 study      3108
36 data       2950
37 between    2829
38 also       2821
39 based      2770
40 how        2758
41 been       2646
42 well       2505
43 different  2499
44 i          2483
45 not        2451
46 cell       2397
47 high       2281
48 two        2281
49 cells      2277
50 using      2206
# ℹ 53,724 more rows
…
substantially, successfully, and sufficiently appears in the ISO list

Removing stop words with tidytext

Now that we have the tokens in the state we want, we might want to count them

grants |>
  unnest_tokens(token, abstract) |>
  count(token, sort = TRUE) |>
  anti_join(stop_words, by = c("token" = "word"))

Removing stop words with tidytext

# A tibble: 53,142 × 2
   token           n
   <chr>       <int>
 1 project      5660
 2 research     5112
 3 study        3108
 4 data         2950
 5 based        2770
 6 cell         2397
 7 cells        2277
 8 1            2083
 9 studies      2007
10 development  1992
# ℹ 53,132 more rows
…
tokenize_ngrams(example_text, n = 2, n_min = 2)[[1]]

"the bicycle"   "bicycle as"   "as an"   "an example"   "example of"   "of social"   "social construction"   "construction cycling"   "cycling in"   "in eastern"   "eastern europe"   "europe why"   "why are"   "are we"   "we surprised"   "surprised to"   "to learn"   "learn about"   "about its"   "its history"   "history micromobility"   "micromobility and"   "and state"   "state policies"   "policies bicycle"   "bicycle for"   "for emancipation"   "emancipation and"   "and as"   "as a"   "a means"   "means of"   "of totalitarian"   "totalitarian control"   "control how"   "how does"   "does history"   "history cycling"   "cycling in"   "in eastern"   "eastern europe"   "europe relate"   "relate to"   "to other"   "other global"   "global phenomena"   "phenomena of"   "of cycling"

Counting n-grams

using unnest_ngrams() allows us to get n-grams

grants |>
  unnest_ngrams(token, abstract, n = 2, n_min = 2) |>
  count(token, sort = TRUE)

Counting n-grams

# A tibble: 571,661 × 2
   token       n
   <chr>   <int>
 1 of the  14457
 2 in the   8265
 3 will be  5286
 4 on the   3983
 5 to the   3925
 6 and the  3584
 7 we will  2977
 8 for the  2907
 9 at the   1986
10 of a     1953
# ℹ 571,651 more rows
…
We can remove stop words again

bigrams <- grants |>
  unnest_ngrams(token, abstract, n = 2, n_min = 2) |>
  count(token, sort = TRUE) |>
  separate(token, c("n1", "n2"), remove = FALSE) |>
  anti_join(stop_words, by = c("n1" = "word")) |>
  anti_join(stop_words, by = c("n2" = "word"))

bigrams

Counting n-grams

# A tibble: 254,139 × 4
   token                n1        n2             n
   <chr>                <chr>     <chr>      <int>
 1 research project     research  project      482
 2 project aims         project   aims         351
 3 proposed project     proposed  project      282
 4 proposed research    proposed  research     270
 5 climate change       climate   change       265
 6 gene expression      gene      expression   219
 7 covid 19             covid     19           168
 8 molecular mechanisms molecular mechanisms   161
 9 machine learning     machine   learning     144
10 specific aims        specific  aims         141
# ℹ 254,129 more rows
…
